#SampleID	Dataset	FullName	Acronyme	time	Site
MAO_1	testing	ma_condition_control	MAO	2	groeland
MAO_2	testing	ma_condition_control	MAO	2	groeland
MAO_3	testing	ma_condition_control	MAO	2	groeland
MD_1	testing	ma_condition_test	MD	1	groeland
MD_2	testing	ma_condition_test	MD	1	groeland
MD_3	testing	ma_condition_test	MD	1	groeland
